{
	"info": {
		"_postman_id": "d1dc432b-1bdb-48fd-8620-feb67d67c9fa",
		"name": "Spring-api-base",
		"schema": "https://schema.getpostman.com/json/collection/v2.1.0/collection.json"
	},
	"item": [
		{
			"name": "http://localhost:8080/api/customers/3",
			"protocolProfileBehavior": {
				"disableBodyPruning": true
			},
			"request": {
				"method": "GET",
				"header": [],
				"body": {
					"mode": "raw",
					"raw": "{\r\n    \r\n}",
					"options": {
						"raw": {
							"language": "json"
						}
					}
				},
				"url": {
					"raw": "http://localhost:8080/api/customers/3",
					"protocol": "http",
					"host": [
						"localhost"
					],
					"port": "8080",
					"path": [
						"api",
						"customers",
						"3"
					]
				}
			},
			"response": []
		},
		{
			"name": "http://localhost:8080/api/customers",
			"request": {
				"method": "POST",
				"header": [
					{
						"key": "Authorization",
						"value": "Bearer eyJhbGciOiJIUzUxMiJ9.eyJzdWIiOiIxIiwiaWF0IjoxNjMwOTEwNzQxLCJleHAiOjE2MzExNjk5NDF9.widi6Gpmoh248LpgCqeBMZXGkZI80nznw4lHlnPcflH2SfUdIvmYERA5VNQ_-v7QjQ3zshhW5wdE0dSxlccRCg",
						"type": "text"
					}
				],
				"body": {
					"mode": "raw",
					"raw": "{\r\n    \"name\":\"quanga23\",\r\n    \"type\":\"t1\",\r\n    \"address\":\"nb\",\r\n    \"note\":\"abc\"\r\n}",
					"options": {
						"raw": {
							"language": "json"
						}
					}
				},
				"url": {
					"raw": "http://localhost:8080/api/customers",
					"protocol": "http",
					"host": [
						"localhost"
					],
					"port": "8080",
					"path": [
						"api",
						"customers"
					]
				}
			},
			"response": []
		},
		{
			"name": "http://localhost:8080/api/customers",
			"request": {
				"method": "GET",
				"header": [],
				"url": {
					"raw": "http://localhost:8080/api/customers",
					"protocol": "http",
					"host": [
						"localhost"
					],
					"port": "8080",
					"path": [
						"api",
						"customers"
					]
				}
			},
			"response": []
		},
		{
			"name": "http://localhost:8080/api/customers/3",
			"request": {
				"method": "DELETE",
				"header": [],
				"url": {
					"raw": "http://localhost:8080/api/customers/3",
					"protocol": "http",
					"host": [
						"localhost"
					],
					"port": "8080",
					"path": [
						"api",
						"customers",
						"3"
					]
				}
			},
			"response": []
		},
		{
			"name": "http://localhost:8080/api/customers/26",
			"request": {
				"method": "PUT",
				"header": [
					{
						"key": "Authorization",
						"value": "Bearer eyJhbGciOiJIUzUxMiJ9.eyJzdWIiOiIxIiwiaWF0IjoxNjMwOTEwNzQxLCJleHAiOjE2MzExNjk5NDF9.widi6Gpmoh248LpgCqeBMZXGkZI80nznw4lHlnPcflH2SfUdIvmYERA5VNQ_-v7QjQ3zshhW5wdE0dSxlccRCg",
						"type": "text"
					}
				],
				"body": {
					"mode": "raw",
					"raw": "{\r\n    \"name\":\"aasa\",\r\n    \"type\":\"t32\",\r\n    \"address\":\"nb32\",\r\n    \"note\":\"abc22\"\r\n}",
					"options": {
						"raw": {
							"language": "json"
						}
					}
				},
				"url": {
					"raw": "http://localhost:8080/api/customers/26",
					"protocol": "http",
					"host": [
						"localhost"
					],
					"port": "8080",
					"path": [
						"api",
						"customers",
						"26"
					]
				}
			},
			"response": []
		},
		{
			"name": "http://localhost:8080/api/login",
			"request": {
				"method": "POST",
				"header": [],
				"body": {
					"mode": "raw",
					"raw": "{\r\n    \"username\":\"loda\",\r\n    \"password\":\"loda\"\r\n}",
					"options": {
						"raw": {
							"language": "json"
						}
					}
				},
				"url": {
					"raw": "http://localhost:8080/api/login",
					"protocol": "http",
					"host": [
						"localhost"
					],
					"port": "8080",
					"path": [
						"api",
						"login"
					]
				}
			},
			"response": []
		},
		{
			"name": "http://localhost:8080/api/random",
			"request": {
				"method": "GET",
				"header": [
					{
						"key": "Authorization",
						"value": "Bearer eyJhbGciOiJIUzUxMiJ9.eyJzdWIiOiIxIiwiaWF0IjoxNjMwOTA2NDM5LCJleHAiOjE2MzExNjU2Mzl9.Th1Cjlq1xsmO2gfh4gtY8u-Ofe9rrQzFOREKIiaWs_OVcT_cYqTmps5TGONBpRx56jQrEm2gsg3daxT72y3tsg",
						"type": "text"
					}
				],
				"url": {
					"raw": "http://localhost:8080/api/random",
					"protocol": "http",
					"host": [
						"localhost"
					],
					"port": "8080",
					"path": [
						"api",
						"random"
					]
				}
			},
			"response": []
		}
	]
}